first_name,last_name,username,email,password,gender,date_of_birth,phone,mobile,hire_date,occupational_group,position,is_active,is_manager,is_report,is_survey,is_online,organization,division,department
Ashik,Mahmud,ashik137,ashikmahmud@gmail.com,ashik1,Male,11/01/1995,01932976181,01932976181,10/01/2017,3,CEO,1,0,1,1,1,National Aeronautics2,Space Research,Pharmacy
Atik,Mahbub,atik1,atik233@gmail.com,ashik1,Male,11/01/1995,01932976181,01932976181,10/10/2017,2,CEO,1,0,1,1,1,National Aeronautics2,Space Research,Pharmacy
Monira,Afroz,moni33,monira.nub@gmail.com,ashik1,Male,11/01/1995,01932976181,01932976181,01/01/2017,1,CEO,1,0,1,1,1,National Aeronautics2,Space Research,Pharmacy